…
``` r
library(readxl)
Mr_Trash_Wheel_data = read_excel("./data/Trash-Wheel-Collection-Totals-8-6-19.xlsx", sheet = "Mr. Trash Wheel", range = "A2:N408", col_names = TRUE) %>%
  janitor::clean_names()%>%
   rename (total_weight_tons = weight_tons,  total_volume_cubic_yards = volume_cubic_yards)%>%
   drop_na (dumpster) %>% 
   mutate(
    sports_balls = round(sports_balls, digits = 0),
    sports_balls = as.integer(sports_balls)
  ) 
Mr_Trash_Wheel_data
```

    ## # A tibble: 344 x 14
    ##    dumpster month  year date                total_weight_to~
    ##       <dbl> <chr> <dbl> <dttm>                         <dbl>
    ##  1        1 May    2014 2014-05-16 00:00:00             4.31
    ##  2        2 May    2014 2014-05-16 00:00:00             2.74
    ##  3        3 May    2014 2014-05-16 00:00:00             3.45
    ##  4        4 May    2014 2014-05-17 00:00:00             3.1 
    ##  5        5 May    2014 2014-05-17 00:00:00             4.06
    ##  6        6 May    2014 2014-05-20 00:00:00             2.71
    ##  7        7 May    2014 2014-05-21 00:00:00             1.91
    ##  8        8 May    2014 2014-05-28 00:00:00             3.7 
    ##  9        9 June   2014 2014-06-05 00:00:00             2.52
    ## 10       10 June   2014 2014-06-11 00:00:00             3.76
    ## # ... with 334 more rows, and 9 more variables:
    ## #   total_volume_cubic_yards <dbl>, plastic_bottles <dbl>,
    ## #   polystyrene <dbl>, cigarette_butts <dbl>, glass_bottles <dbl>,
    ## #   grocery_bags <dbl>, chip_bags <dbl>, sports_balls <int>,
    ## #   homes_powered <dbl>
…
   )
```

    ## Joining, by = c("year", "month", "total")

``` r
combination_precipitation
```

    ## # A tibble: 24 x 3
    ##     year month     total
    ##    <dbl> <chr>     <dbl>
    ##  1  2017 January    2.34
    ##  2  2017 February   1.46
    ##  3  2017 March      3.57
    ##  4  2017 April      3.99
    ##  5  2017 May        5.64
    ##  6  2017 June       1.4 
    ##  7  2017 July       7.09
    ##  8  2017 August     4.44
    ##  9  2017 September  1.95
    ## 10  2017 October    0   
    ## # ... with 14 more rows
…
``` r
pols_month
```

    ## # A tibble: 822 x 9
    ##     year month    gov_gop sen_gop rep_gop gov_dem sen_dem rep_dem president
    ##    <int> <chr>      <dbl>   <dbl>   <dbl>   <dbl>   <dbl>   <dbl> <chr>    
    ##  1  1947 January       23      51     253      23      45     198 dem      
    ##  2  1947 February      23      51     253      23      45     198 dem      
    ##  3  1947 March         23      51     253      23      45     198 dem      
    ##  4  1947 April         23      51     253      23      45     198 dem      
    ##  5  1947 May           23      51     253      23      45     198 dem      
    ##  6  1947 June          23      51     253      23      45     198 dem      
    ##  7  1947 July          23      51     253      23      45     198 dem      
    ##  8  1947 August        23      51     253      23      45     198 dem      
    ##  9  1947 Septemb~      23      51     253      23      45     198 dem      
    ## 10  1947 October       23      51     253      23      45     198 dem      
    ## # ... with 812 more rows
…
    ## Parsed with column specification:
    ## cols(
    ##   date = col_character(),
    ##   close = col_double()
    ## )

``` r
snp
```

    ## # A tibble: 787 x 3
    ##     year month     close
    ##    <int> <chr>     <dbl>
    ##  1  1950 January    17.0
    ##  2  1950 February   17.2
    ##  3  1950 March      17.3
    ##  4  1950 April      18.0
    ##  5  1950 May        18.8
    ##  6  1950 June       17.7
    ##  7  1950 July       17.8
    ##  8  1950 August     18.4
    ##  9  1950 September  19.5
    ## 10  1950 October    19.5
    ## # ... with 777 more rows
…
``` r
unemployment
```

    ## # A tibble: 816 x 3
    ##     year month number
    ##    <dbl> <chr>  <dbl>
    ##  1  1948 Jan      3.4
    ##  2  1948 Feb      3.8
    ##  3  1948 Mar      4  
    ##  4  1948 Apr      3.9
    ##  5  1948 May      3.5
    ##  6  1948 Jun      3.6
    ##  7  1948 Jul      3.6
    ##  8  1948 Aug      3.9
    ##  9  1948 Sep      3.8
    ## 10  1948 Oct      3.7
    ## # ... with 806 more rows

## Join the datasets.

``` r
join_datasets = 
  left_join (pols_month, snp, by = c ("year","month")) %>% 
    left_join (unemployment,by = c ("year","month"))
join_datasets
```

    ## # A tibble: 822 x 11
    ##     year month gov_gop sen_gop rep_gop gov_dem sen_dem rep_dem president
    ##    <dbl> <chr>   <dbl>   <dbl>   <dbl>   <dbl>   <dbl>   <dbl> <chr>    
    ##  1  1947 Janu~      23      51     253      23      45     198 dem      
    ##  2  1947 Febr~      23      51     253      23      45     198 dem      
    ##  3  1947 March      23      51     253      23      45     198 dem      
    ##  4  1947 April      23      51     253      23      45     198 dem      
    ##  5  1947 May        23      51     253      23      45     198 dem      
    ##  6  1947 June       23      51     253      23      45     198 dem      
    ##  7  1947 July       23      51     253      23      45     198 dem      
    ##  8  1947 Augu~      23      51     253      23      45     198 dem      
    ##  9  1947 Sept~      23      51     253      23      45     198 dem      
    ## 10  1947 Octo~      23      51     253      23      45     198 dem      
    ## # ... with 812 more rows, and 2 more variables: close <dbl>, number <dbl>
…
    ## The following object is masked from 'package:ggplot2':
    ## 
    ##     scale_discrete_manual

``` r
library(dplyr)
popular_baby_names = read_csv (file = "./data/Popular_Baby_Names.csv", col_names = TRUE, col_types = "ncccnn")%>%
  janitor::clean_names()%>%
  distinct(.keep_all = TRUE)
popular_baby_names
```

    ## # A tibble: 12,181 x 6
    ##    year_of_birth gender ethnicity              childs_first_na~ count  rank
    ##            <dbl> <chr>  <chr>                  <chr>            <dbl> <dbl>
    ##  1          2016 FEMALE ASIAN AND PACIFIC ISL~ Olivia             172     1
    ##  2          2016 FEMALE ASIAN AND PACIFIC ISL~ Chloe              112     2
    ##  3          2016 FEMALE ASIAN AND PACIFIC ISL~ Sophia             104     3
    ##  4          2016 FEMALE ASIAN AND PACIFIC ISL~ Emily               99     4
    ##  5          2016 FEMALE ASIAN AND PACIFIC ISL~ Emma                99     4
    ##  6          2016 FEMALE ASIAN AND PACIFIC ISL~ Mia                 79     5
    ##  7          2016 FEMALE ASIAN AND PACIFIC ISL~ Charlotte           59     6
    ##  8          2016 FEMALE ASIAN AND PACIFIC ISL~ Sarah               57     7
    ##  9          2016 FEMALE ASIAN AND PACIFIC ISL~ Isabella            56     8
    ## 10          2016 FEMALE ASIAN AND PACIFIC ISL~ Hannah              56     8
    ## # ... with 12,171 more rows
…
